Dashboards: Using R to create actionable science - 3 Interactive: Shiny apps
…
3.3.1 Prepare data

First, let’s prepare the water quality data for our app from the Tampa Bay Estuary Program R package tbeptools that we’ll install if it’s not already installed on your computer.

if (!"tbeptools" %in% rownames(installed.packages()))
  install.packages(
    "tbeptools",
    repos = c(
      tbeptech = "https://tbep-tech.r-universe.dev",
      CRAN     = "https://cloud.r-project.org") )
library(tbeptools)

epcdata

# A tibble: 27,601 × 26
   bay_segment epchc_station SampleTime             yr    mo Latitude Longitude
   <chr>               <dbl> <dttm>              <dbl> <dbl>    <dbl>     <dbl>
 1 HB                      6 2023-04-17 10:00:00  2023     4     27.9     -82.5
 2 HB                      7 2023-04-17 10:15:00  2023     4     27.9     -82.5
 3 HB                      8 2023-04-17 13:35:00  2023     4     27.9     -82.4
 4 MTB                     9 2023-04-17 12:14:00  2023     4     27.8     -82.4
 5 MTB                    11 2023-04-17 10:29:00  2023     4     27.8     -82.5
 6 MTB                    13 2023-04-17 10:43:00  2023     4     27.8     -82.5
 7 MTB                    14 2023-04-17 11:33:00  2023     4     27.8     -82.5
 8 MTB                    16 2023-04-26 09:22:00  2023     4     27.7     -82.5
 9 MTB                    19 2023-04-26 09:33:00  2023     4     27.7     -82.6
10 LTB                    23 2023-04-26 11:43:00  2023     4     27.7     -82.6
# ℹ 27,591 more rows
# ℹ 19 more variables: Total_Depth_m <dbl>, Sample_Depth_m <dbl>, tn <dbl>,
#   tn_q <chr>, sd_m <dbl>, sd_raw_m <dbl>, sd_q <chr>, chla <dbl>,
#   chla_q <chr>, Sal_Top_ppth <dbl>, Sal_Mid_ppth <dbl>,
#   Sal_Bottom_ppth <dbl>, Temp_Water_Top_degC <dbl>,
#   Temp_Water_Mid_degC <dbl>, Temp_Water_Bottom_degC <dbl>,
#   `Turbidity_JTU-NTU` <chr>, Turbidity_Q <chr>, Color_345_F45_PCU <chr>, …
…
  select(
    station                 = epchc_station,
    SampleTime,
    lat                     = Latitude,
    lon                     = Longitude,
    `Total Nitrogen (mg/L)` = tn,
    `Chlorophyll-a (ug/L)`  = chla,
    `Secchi depth (m)`      = sd_m) |>
  pivot_longer(
    names_to  = "indicator",
    values_to = "value",
    `Total Nitrogen (mg/L)`:`Secchi depth (m)`)
d

# A tibble: 82,803 × 6
   station SampleTime            lat   lon indicator               value
     <dbl> <dttm>              <dbl> <dbl> <chr>                   <dbl>
 1       6 2023-04-17 10:00:00  27.9 -82.5 Total Nitrogen (mg/L)   0.235
 2       6 2023-04-17 10:00:00  27.9 -82.5 Chlorophyll-a (ug/L)    1.5  
 3       6 2023-04-17 10:00:00  27.9 -82.5 Secchi depth (m)      NaN    
 4       7 2023-04-17 10:15:00  27.9 -82.5 Total Nitrogen (mg/L)   0.284
 5       7 2023-04-17 10:15:00  27.9 -82.5 Chlorophyll-a (ug/L)    2.1  
 6       7 2023-04-17 10:15:00  27.9 -82.5 Secchi depth (m)        1.4  
 7       8 2023-04-17 13:35:00  27.9 -82.4 Total Nitrogen (mg/L)   0.246
 8       8 2023-04-17 13:35:00  27.9 -82.4 Chlorophyll-a (ug/L)    3.2  
 9       8 2023-04-17 13:35:00  27.9 -82.4 Secchi depth (m)      NaN    
10       9 2023-04-17 12:14:00  27.8 -82.4 Total Nitrogen (mg/L)   0.183
# ℹ 82,793 more rows
…
stations

 [1]  6  7  8  9 11 13 14 16 19 23 24 25 28 32 33 36 38 40 41 44 46 47 50 51 52
[26] 55 60 63 64 65 66 67 68 70 71 73 80 81 82 84 90 91 92 93 95

indicators

[1] "Total Nitrogen (mg/L)" "Chlorophyll-a (ug/L)"  "Secchi depth (m)"     

locations

# A tibble: 45 × 3
   station   lon   lat
     <dbl> <dbl> <dbl>
 1       6 -82.5  27.9
 2       7 -82.5  27.9
 3       8 -82.4  27.9
 4       9 -82.4  27.8
 5      11 -82.5  27.8
 6      13 -82.5  27.8
 7      14 -82.5  27.8
 8      16 -82.5  27.7
 9      19 -82.6  27.7
10      23 -82.6  27.7
# ℹ 35 more rows
…
